[
 {
  "docstatus": 0, 
  "doctype": "Workflow State", 
  "icon": "", 
  "modified": "2019-06-01 20:25:53.212198", 
  "name": "Draft", 
  "parent": null, 
  "parentfield": null, 
  "parenttype": null, 
  "style": "Warning", 
  "workflow_state_name": "Draft"
 }
]